[
  {
    "prompt": "Q: What is the mood or atmosphere conveyed by the DALL-E generated image?",
    "completion": "A: The DALL-E generated image conveys a mood of [description of the mood or atmosphere]."
  },
  {
    "prompt": "Q: Describe the composition and arrangement of elements in the DALL-E generated image.",
    "completion": "A: The DALL-E generated image features a composition with [description of composition and arrangement]."
  },
  {
    "prompt": "Q: How would you interpret the symbolism in the DALL-E generated image?",
    "completion": "A: The DALL-E generated image contains symbolism that represents [interpretation of symbolism]."
  },
  {
    "prompt": "Q: What is the focal point or main focus of attention in the DALL-E generated image?",
    "completion": "A: The DALL-E generated image emphasizes [description of the focal point or main focus]."
  },
  {
    "prompt": "Q: How does the color palette used in the DALL-E generated image contribute to its overall aesthetic?",
    "completion": "A: The DALL-E generated image utilizes a color palette that enhances [description of aesthetic]."
  },
  {
    "prompt": "Q: Describe the lighting and shadows in the DALL-E generated image.",
    "completion": "A: The DALL-E generated image showcases lighting and shadows that create [description of lighting and shadows]."
  },
  {
    "prompt": "Q: What is the level of realism or abstraction in the DALL-E generated image?",
    "completion": "A: The DALL-E generated image exhibits a level of [description of realism or abstraction]."
  },
  {
    "prompt": "Q: Discuss the overall visual impact of the DALL-E generated image.",
    "completion": "A: The DALL-E generated image has a striking visual impact due to [description of visual elements]."
  },
  {
    "prompt": "Q: What cultural or historical references can be inferred from the DALL-E generated image?",
    "completion": "A: The DALL-E generated image alludes to [description of cultural or historical references]."
  },
  {
    "prompt": "Q: Describe the sense of movement or stillness conveyed by the DALL-E generated image.",
    "completion": "A: The DALL-E generated image captures a sense of [description of movement or stillness]."
  },
  {
    "prompt": "Q: How does the DALL-E generated image evoke a sense of nostalgia?",
    "completion": "A: The DALL-E generated image evokes nostalgia through [description of nostalgic elements]."
  },
  {
    "prompt": "Q: What elements of nature are represented in the DALL-E generated image?",
    "completion": "A: The DALL-E generated image portrays elements of nature such as [description of natural elements]."
  },
  {
    "prompt": "Q: Discuss the use of texture and patterns in the DALL-E generated image.",
    "completion": "A: The DALL-E generated image incorporates texture and patterns that add [description of texture and patterns]."
  },
  {
    "prompt": "Q: How does the DALL-E generated image challenge traditional visual conventions?",
    "completion": "A: The DALL-E generated image defies conventional expectations by [description of unconventional elements]."
  },
  {
    "prompt": "Q: What narrative possibilities arise from the juxtaposition of elements in the DALL-E generated image?",
    "completion": "A: The DALL-E generated image juxtaposes elements to suggest narratives of [description of narrative possibilities]."
  },
  {
    "prompt": "Q: Describe the sense of depth and perspective in the DALL-E generated image.",
    "completion": "A: The DALL-E generated image creates a sense of depth and perspective through [description of depth and perspective]."
  },
  {
    "prompt": "Q: How does the DALL-E generated image convey a sense of mystery?",
    "completion": "A: The DALL-E generated image evokes a mysterious atmosphere through [description of elements of mystery]."
  },
  {
    "prompt": "Q: Discuss the use of symmetry or asymmetry in the DALL-E generated image.",
    "completion": "A: The DALL-E generated image employs symmetry or asymmetry to [description of effect]."
  },
  {
    "prompt": "Q: What cultural or social commentaries can be inferred from the DALL-E generated image?",
    "completion": "A: The DALL-E generated image offers insights into [description of cultural or social commentaries]."
  },
  {
    "prompt": "Q: How does the DALL-E generated image evoke a sense of wonder and awe?",
    "completion": "A: The DALL-E generated image inspires wonder and awe through [description of elements of wonder]."
  },
  {
    "prompt": "Q: Describe the overall aesthetic appeal of the DALL-E generated image.",
    "completion": "A: The DALL-E generated image has an aesthetic appeal characterized by [description of aesthetic elements]."
  },
  {
    "prompt": "Q: What architectural or structural elements are present in the DALL-E generated image?",
    "completion": "A: The DALL-E generated image features architectural or structural elements such as [description of elements]."
  },
  {
    "prompt": "Q: Discuss the use of scale and proportion in the DALL-E generated image.",
    "completion": "A: The DALL-E generated image plays with scale and proportion to [description of effect]."
  },
  {
    "prompt": "Q: How does the DALL-E generated image represent the concept of time?",
    "completion": "A: The DALL-E generated image symbolizes the concept of time through [description of representation]."
  },
  {
    "prompt": "Q: What emotions or states of mind does the DALL-E generated image elicit?",
    "completion": "A: The DALL-E generated image elicits emotions such as [list of emotions] and states of mind such as [list of states of mind]."
  },
  {
    "prompt": "Q: Discuss the use of color symbolism in the DALL-E generated image.",
    "completion": "A: The DALL-E generated image employs color symbolism to convey [description of symbolism]."
  },
  {
    "prompt": "Q: How does the DALL-E generated image reflect cultural diversity or inclusivity?",
    "completion": "A: The DALL-E generated image embraces cultural diversity and inclusivity by [description of elements]."
  },
  {
    "prompt": "Q: What role does nature play in the DALL-E generated image?",
    "completion": "A: Nature serves as [description of role] in the DALL-E generated image."
  },
  {
    "prompt": "Q: Discuss the use of perspective and point of view in the DALL-E generated image.",
    "completion": "A: The DALL-E generated image employs perspective and point of view to [description of effect]."
  },
  {
    "prompt": "Q: How does the DALL-E generated image convey a sense of tranquility?",
    "completion": "A: The DALL-E generated image emanates tranquility through [description of tranquil elements]."
  },
  {
    "prompt": "Q: Describe the cultural or historical references in the DALL-E generated image.",
    "completion": "A: The DALL-E generated image references [description of cultural or historical elements]."
  },
  {
    "prompt": "Q: Discuss the use of repetition and patterns in the DALL-E generated image.",
    "completion": "A: The DALL-E generated image incorporates repetition and patterns to [description of effect]."
  },
  {
    "prompt": "Q: How does the DALL-E generated image evoke a sense of curiosity?",
    "completion": "A: The DALL-E generated image sparks curiosity through [description of elements of curiosity]."
  },
  {
    "prompt": "Q: What societal or political messages can be inferred from the DALL-E generated image?",
    "completion": "A: The DALL-E generated image implies [description of societal or political messages]."
  },
  {
    "prompt": "Q: Discuss the use of lines and shapes in the DALL-E generated image.",
    "completion": "A: The DALL-E generated image employs lines and shapes to [description of effect]."
  },
  {
    "prompt": "Q: How does the DALL-E generated image challenge traditional notions of beauty?",
    "completion": "A: The DALL-E generated image subverts traditional beauty standards by [description of subversion]."
  },
  {
    "prompt": "Q: Describe the sense of energy or movement captured in the DALL-E generated image.",
    "completion": "A: The DALL-E generated image captures a dynamic sense of energy and movement through [description of elements]."
  },
  {
    "prompt": "Q: What role does technology play in the DALL-E generated image?",
    "completion": "A: Technology is represented as [description of role] in the DALL-E generated image."
  },
  {
    "prompt": "Q: Discuss the use of negative space in the DALL-E generated image.",
    "completion": "A: The DALL-E generated image utilizes negative space to [description of effect]."
  },
  {
    "prompt": "Q: How does the DALL-E generated image explore the concept of identity?",
    "completion": "A: The DALL-E generated image explores the concept of identity through [description of exploration]."
  },
  {
    "prompt": "Q: What role does human interaction play in the DALL-E generated image?",
    "completion": "A: Human interaction is depicted as [description of role] in the DALL-E generated image."
  },
  {
    "prompt": "Q: Discuss the use of contrast and juxtaposition in the DALL-E generated image.",
    "completion": "A: The DALL-E generated image juxtaposes contrasting elements to [description of effect]."
  },
  {
    "prompt": "Q: How does the DALL-E generated image represent the concept of identity?",
    "completion": "A: The DALL-E generated image symbolizes the concept of identity through [description of representation]."
  },
  {
    "prompt": "Q: What emotions or states of mind does the DALL-E generated image evoke?",
    "completion": "A: The DALL-E generated image evokes emotions such as [list of emotions] and states of mind such as [list of states of mind]."
  },
  {
    "prompt": "Q: Discuss the use of color symbolism in the DALL-E generated image.",
    "completion": "A: The DALL-E generated image employs color symbolism to convey [description of symbolism]."
  },
  {
    "prompt": "Q: How does the DALL-E generated image reflect cultural diversity or inclusivity?",
    "completion": "A: The DALL-E generated image embraces cultural diversity and inclusivity by [description of elements]."
  },
  {
    "prompt": "Q: What role does nature play in the DALL-E generated image?",
    "completion": "A: Nature serves as [description of role] in the DALL-E generated image."
  },
  {
    "prompt": "Q: Discuss the use of perspective and point of view in the DALL-E generated image.",
    "completion": "A: The DALL-E generated image employs perspective and point of view to [description of effect]."
  },
  {
    "prompt": "Q: How does the DALL-E generated image convey a sense of tranquility?",
    "completion": "A: The DALL-E generated image emanates tranquility through [description of tranquil elements]."
  },
  {
    "prompt": "Q: Describe the cultural or historical references in the DALL-E generated image.",
    "completion": "A: The DALL-E generated image references [description of cultural or historical elements]."
  },
  {
    "prompt": "Q: Discuss the use of repetition and patterns in the DALL-E generated image.",
    "completion": "A: The DALL-E generated image incorporates repetition and patterns to [description of effect]."
  },
  {
    "prompt": "Q: How does the DALL-E generated image evoke a sense of curiosity?",
    "completion": "A: The DALL-E generated image sparks curiosity through [description of elements of curiosity]."
  },
  {
    "prompt": "Q: What societal or political messages can be inferred from the DALL-E generated image?",
    "completion": "A: The DALL-E generated image implies [description of societal or political messages]."
  },
  {
    "prompt": "Q: Discuss the use of lines and shapes in the DALL-E generated image.",
    "completion": "A: The DALL-E generated image employs lines and shapes to [description of effect]."
  },
  {
    "prompt": "Q: How does the DALL-E generated image challenge traditional notions of beauty?",
    "completion": "A: The DALL-E generated image subverts traditional beauty standards by [description of subversion]."
  },
  {
    "prompt": "Q: Describe the sense of energy or movement captured in the DALL-E generated image.",
    "completion": "A: The DALL-E generated image captures a dynamic sense of energy and movement through [description of elements]."
  },
  {
    "prompt": "Q: What role does technology play in the DALL-E generated image?",
    "completion": "A: Technology is represented as [description of role] in the DALL-E generated image."
  },
  {
    "prompt": "Q: Discuss the use of negative space in the DALL-E generated image.",
    "completion": "A: The DALL-E generated image utilizes negative space to [description of effect]."
  },
  {
    "prompt": "Q: How does the DALL-E generated image explore the concept of identity?",
    "completion": "A: The DALL-E generated image explores the concept of identity through [description of exploration]."
  },
  {
    "prompt": "Q: What role does human interaction play in the DALL-E generated image?",
    "completion": "A: Human interaction is depicted as [description of role] in the DALL-E generated image."
  },
  {
    "prompt": "Q: Discuss the use of contrast and juxtaposition in the DALL-E generated image.",
    "completion": "A: The DALL-E generated image juxtaposes contrasting elements to [description of effect]."
  },
  {
    "prompt": "Q: How does the DALL-E generated image represent the concept of identity?",
    "completion": "A: The DALL-E generated image symbolizes the concept of identity through [description of representation]."
  },
  {
    "prompt": "Q: What emotions or states of mind does the DALL-E generated image evoke?",
    "completion": "A: The DALL-E generated image evokes emotions such as [list of emotions] and states of mind such as [list of states of mind]."
  }
]