{
  "guide": [
    {
      "question": "What is Genmo AI?",
      "answer": "Genmo AI is an advanced artificial intelligence system designed to assist users in various tasks. It leverages cutting-edge machine learning algorithms and neural networks to provide intelligent solutions."
    },
    {
      "question": "How can I access Genmo AI?",
      "answer": "To access Genmo AI, you need to visit the official website at www.genmoai.com. There, you can create an account and log in to the platform."
    },
    {
      "question": "What are the main features of Genmo AI?",
      "answer": "Genmo AI offers a range of powerful features, including natural language processing, image recognition, data analysis, and predictive modeling. It can help you with tasks such as language translation, image classification, sentiment analysis, and more."
    },
    {
      "question": "How do I use Genmo AI for language translation?",
      "answer": "To use Genmo AI for language translation, follow these steps:\n\n1. Log in to the Genmo AI platform using your account credentials.\n2. Navigate to the language translation section in the dashboard.\n3. Enter or paste the text you want to translate into the provided text area.\n4. Specify the source language of the text.\n5. Choose the target language you want to translate the text into.\n6. Click the 'Translate' button to initiate the translation process.\n\nGenmo AI will then process your request and provide the translated text."
    },
    {
      "question": "Can Genmo AI assist with image recognition?",
      "answer": "Yes, Genmo AI has a robust image recognition capability. Here's how you can use it:\n\n1. Go to the image recognition feature on the Genmo AI platform.\n2. Upload an image you want to analyze by selecting it from your device or providing a URL.\n3. Initiate the image recognition process.\n\nGenmo AI will analyze the uploaded image using advanced algorithms and provide information about the objects, scenes, or patterns detected in the image."
    },
    {
      "question": "Is there any API or SDK available for integrating Genmo AI into my applications?",
      "answer": "Yes, Genmo AI provides APIs and SDKs that enable seamless integration into your applications. By using the provided APIs and SDKs, you can leverage Genmo AI's capabilities within your own software.\n\nTo get started, visit the developer section of the Genmo AI website and access the documentation for detailed instructions on integrating Genmo AI into your applications."
    },
    {
      "question": "What kind of data analysis can I perform with Genmo AI?",
      "answer": "Genmo AI offers a wide range of data analysis capabilities, including:\n\n1. Exploratory data analysis: You can interactively explore and visualize your data to gain insights and identify patterns.\n2. Statistical analysis: Genmo AI provides a variety of statistical methods and tests for analyzing data distributions, correlations, and making inferences.\n3. Predictive modeling: You can build predictive models using machine learning algorithms to make predictions or classify data.\n\nThese are just a few examples, and Genmo AI provides a comprehensive set of tools and functions to support various data analysis tasks."
    },
    {
      "question": "Does Genmo AI support real-time processing?",
      "answer": "Yes, Genmo AI is designed to support real-time processing for certain tasks. Real-time processing allows you to obtain immediate results and responses based on the input you provide.\n\nHowever, it's important to note that the availability of real-time processing may depend on the specific task and the complexity of the analysis involved. Some tasks may require more time to process, especially when dealing with large datasets or computationally intensive algorithms."
    },
    {
      "question": "Can I customize the models used by Genmo AI?",
      "answer": "Yes, Genmo AI offers customization options for its models to better suit your specific needs. Depending on the task and the level of customization supported, you can:\n\n1. Fine-tune existing models: Adjust the pre-trained models using your own data to improve their performance on specific tasks.\n2. Train your own models: Genmo AI may provide tools and resources to train your own models from scratch using your data.\n\nThe availability and extent of customization options may vary depending on the task and the models used. Refer to the Genmo AI documentation for more information on the customization capabilities."
    },
    {
      "question": "Is Genmo AI suitable for beginners with no AI experience?",
      "answer": "Yes, Genmo AI is designed to be user-friendly and accessible to users with varying levels of AI experience. The platform provides intuitive interfaces, guided workflows, and helpful documentation to assist beginners in using the tool effectively.\n\nAdditionally, Genmo AI may offer tutorials and example projects that can serve as learning resources for those new to AI. You can explore these resources to gain a better understanding of the tool's capabilities and how to apply them to your tasks."
    },
    {
      "question": "What kind of support is available for Genmo AI users?",
      "answer": "Genmo AI provides comprehensive support for its users. Here are some support resources available:\n\n1. Documentation: Genmo AI offers detailed documentation that covers various aspects of the platform, including features, usage guides, and API documentation.\n2. Knowledge base: There is a knowledge base with articles and tutorials that address common questions and provide solutions to common issues.\n3. User forums: Genmo AI maintains user forums where users can engage with the community, ask questions, and share their experiences.\n4. Customer support: If you have specific inquiries or encounter any issues, you can reach out to Genmo AI's customer support team for assistance.\n\nThese support resources aim to help users make the most out of the Genmo AI tool and address any concerns or questions they may have."
    },
    {
      "question": "Can I use Genmo AI for voice recognition or speech-to-text conversion?",
      "answer": "At present, Genmo AI focuses primarily on text and image-related tasks. While voice recognition and speech-to-text conversion are not mentioned as core features, it's worth exploring the official Genmo AI documentation or contacting their support team for the most up-to-date information on the tool's capabilities in this area. They may have additional resources or plans for incorporating voice-related functionality."
    },
    {
      "question": "What is Genmo AI?",
      "answer": "Genmo AI is an advanced artificial intelligence system designed to assist users in various tasks. It leverages cutting-edge machine learning algorithms and neural networks to provide intelligent solutions."
    },
    {
      "question": "How can I access Genmo AI?",
      "answer": "To access Genmo AI, you need to visit the official website at www.genmoai.com. There, you can create an account and log in to the platform."
    },
    {
      "question": "What are the main features of Genmo AI?",
      "answer": "Genmo AI offers a range of powerful features, including natural language processing, image recognition, data analysis, and predictive modeling. It can help you with tasks such as language translation, image classification, sentiment analysis, and more."
    },
    {
      "question": "How do I use Genmo AI for language translation?",
      "answer": "To use Genmo AI for language translation, follow these steps:\n\n1. Log in to the Genmo AI platform using your account credentials.\n2. Navigate to the language translation section in the dashboard.\n3. Enter or paste the text you want to translate into the provided text area.\n4. Specify the source language of the text.\n5. Choose the target language you want to translate the text into.\n6. Click the 'Translate' button to initiate the translation process.\n\nGenmo AI will then process your request and provide the translated text."
    },
    {
      "question": "Can Genmo AI assist with image recognition?",
      "answer": "Yes, Genmo AI has a robust image recognition capability. Here's how you can use it:\n\n1. Go to the image recognition feature on the Genmo AI platform.\n2. Upload an image you want to analyze by selecting it from your device or providing a URL.\n3. Initiate the image recognition process.\n\nGenmo AI will analyze the uploaded image using advanced algorithms and provide information about the objects, scenes, or patterns detected in the image."
    },
    {
      "question": "Is there any API or SDK available for integrating Genmo AI into my applications?",
      "answer": "Yes, Genmo AI provides APIs and SDKs that enable seamless integration into your applications. By using the provided APIs and SDKs, you can leverage Genmo AI's capabilities within your own software.\n\nTo get started, visit the developer section of the Genmo AI website and access the documentation for detailed instructions on integrating Genmo AI into your applications."
    },
    {
      "question": "What kind of data analysis can I perform with Genmo AI?",
      "answer": "Genmo AI offers a wide range of data analysis capabilities, including:\n\n1. Exploratory data analysis: You can interactively explore and visualize your data to gain insights and identify patterns.\n2. Statistical analysis: Genmo AI provides a variety of statistical methods and tests for analyzing data distributions, correlations, and making inferences.\n3. Predictive modeling: You can build predictive models using machine learning algorithms to make predictions or classify data.\n\nThese are just a few examples, and Genmo AI provides a comprehensive set of tools and functions to support various data analysis tasks."
    },
    {
      "question": "Does Genmo AI support real-time processing?",
      "answer": "Yes, Genmo AI is designed to support real-time processing for certain tasks. Real-time processing allows you to obtain immediate results and responses based on the input you provide.\n\nHowever, it's important to note that the availability of real-time processing may depend on the specific task and the complexity of the analysis involved. Some tasks may require more time to process, especially when dealing with large datasets or computationally intensive algorithms."
    },
    {
      "question": "Can I customize the models used by Genmo AI?",
      "answer": "Yes, Genmo AI offers customization options for its models to better suit your specific needs. Depending on the task and the level of customization supported, you can:\n\n1. Fine-tune existing models: Adjust the pre-trained models using your own data to improve their performance on specific tasks.\n2. Train your own models: Genmo AI may provide tools and resources to train your own models from scratch using your data.\n\nThe availability and extent of customization options may vary depending on the task and the models used. Refer to the Genmo AI documentation for more information on the customization capabilities."
    },
    {
      "question": "Is Genmo AI suitable for beginners with no AI experience?",
      "answer": "Yes, Genmo AI is designed to be user-friendly and accessible to users with varying levels of AI experience. The platform provides intuitive interfaces, guided workflows, and helpful documentation to assist beginners in using the tool effectively.\n\nAdditionally, Genmo AI may offer tutorials and example projects that can serve as learning resources for those new to AI. You can explore these resources to gain a better understanding of the tool's capabilities and how to apply them to your tasks."
    },
    {
      "question": "What kind of support is available for Genmo AI users?",
      "answer": "Genmo AI provides comprehensive support for its users. Here are some support resources available:\n\n1. Documentation: Genmo AI offers detailed documentation that covers various aspects of the platform, including features, usage guides, and API documentation.\n2. Knowledge base: There is a knowledge base with articles and tutorials that address common questions and provide solutions to common issues.\n3. User forums: Genmo AI maintains user forums where users can engage with the community, ask questions, and share their experiences.\n4. Customer support: If you have specific inquiries or encounter any issues, you can reach out to Genmo AI's customer support team for assistance.\n\nThese support resources aim to help users make the most out of the Genmo AI tool and address any concerns or questions they may have."
    },
    {
      "question": "Can I use Genmo AI for voice recognition or speech-to-text conversion?",
      "answer": "At present, Genmo AI focuses primarily on text and image-related tasks. While voice recognition and speech-to-text conversion are not mentioned as core features, it's worth exploring the official Genmo AI documentation or contacting their support team for the most up-to-date information on the tool's capabilities in this area. They may have additional resources or plans for incorporating voice-related functionality."
    },
    {
      "question": "Can I use Genmo AI for sentiment analysis?",
      "answer": "Yes, Genmo AI offers sentiment analysis capabilities. You can provide text data, such as reviews or social media posts, and Genmo AI will analyze the sentiment expressed in the text, determining whether it is positive, negative, or neutral."
    },
    {
      "question": "Does Genmo AI support multiple programming languages?",
      "answer": "Yes, Genmo AI supports multiple programming languages. You can interact with the Genmo AI platform and APIs using popular languages such as Python, Java, JavaScript, and more."
    },
    {
      "question": "What security measures does Genmo AI have in place to protect user data?",
      "answer": "Genmo AI takes the security of user data seriously. They employ various security measures such as encryption, access controls, and regular security audits to protect user data from unauthorized access or breaches."
    },
    {
      "question": "Can I deploy Genmo AI models on my own infrastructure?",
      "answer": "Yes, Genmo AI provides options for deploying models on your own infrastructure. This allows you to leverage the power of Genmo AI while maintaining control over the deployment environment."
    },
    {
      "question": "Does Genmo AI offer pre-trained models for specific tasks?",
      "answer": "Yes, Genmo AI provides pre-trained models for a variety of tasks such as text classification, object detection, and language translation. These models can be used out-of-the-box or fine-tuned to suit your specific needs."
    },
    {
      "question": "Can I integrate Genmo AI with other third-party tools or services?",
      "answer": "Yes, Genmo AI offers integration capabilities with third-party tools and services. This allows you to combine the power of Genmo AI with other tools in your workflow or leverage external services for enhanced functionality."
    },
    {
      "question": "What data privacy measures does Genmo AI follow?",
      "answer": "Genmo AI adheres to strict data privacy regulations and practices. They ensure that user data is handled securely, and they provide options for data anonymization or pseudonymization to protect individual privacy."
    },
    {
      "question": "Can Genmo AI generate synthetic data for training purposes?",
      "answer": "Yes, Genmo AI has the ability to generate synthetic data that can be used for training machine learning models. This can be particularly useful when real-world data is scarce or sensitive."
    },
    {
      "question": "Does Genmo AI support deep learning algorithms?",
      "answer": "Yes, Genmo AI supports deep learning algorithms. Deep learning is a subset of machine learning that involves training neural networks with multiple layers to perform complex tasks, and Genmo AI provides tools and frameworks to work with deep learning models."
    },
    {
      "question": "Can I export models trained with Genmo AI for use in other frameworks or platforms?",
      "answer": "Yes, Genmo AI allows you to export trained models for use in other frameworks or platforms. This gives you the flexibility to deploy your models in the environment of your choice."
    },
    {
      "question": "What hardware requirements are needed to run Genmo AI?",
      "answer": "Genmo AI can run on a variety of hardware configurations, ranging from CPUs to GPUs and even specialized hardware accelerators. The specific hardware requirements may depend on the complexity of the task and the size of the models used."
    },
    {
      "question": "Can Genmo AI handle large-scale data processing?",
      "answer": "Yes, Genmo AI is designed to handle large-scale data processing. It can efficiently process and analyze large volumes of data, making it suitable for tasks that involve big data analytics or processing large datasets."
    },
    {
      "question": "What is the pricing model for using Genmo AI?",
      "answer": "Genmo AI offers various pricing plans to suit different user needs. These plans may include free tiers, pay-as-you-go options, or subscription-based models. You can visit the Genmo AI website or contact their sales team for detailed pricing information."
    },
    {
      "question": "Can Genmo AI assist with time series analysis?",
      "answer": "Yes, Genmo AI provides time series analysis capabilities. You can input time-stamped data and leverage Genmo AI's algorithms to analyze patterns, make forecasts, or detect anomalies in the data."
    },
    {
      "question": "Does Genmo AI offer automated machine learning (AutoML) features?",
      "answer": "Yes, Genmo AI includes automated machine learning (AutoML) features. AutoML allows users to automate the process of building and optimizing machine learning models, making it easier to leverage AI capabilities without extensive manual configuration."
    },
    {
      "question": "Can Genmo AI handle unstructured data, such as text documents or images?",
      "answer": "Yes, Genmo AI is designed to handle unstructured data. It provides techniques and models to process and analyze unstructured data types such as text documents, images, and audio."
    },
    {
      "question": "What data preprocessing capabilities does Genmo AI offer?",
      "answer": "Genmo AI provides various data preprocessing capabilities, including text cleaning, tokenization, normalization, and feature scaling. These preprocessing techniques help prepare the data for analysis and improve the performance of machine learning models."
    },
    {
      "question": "Can I collaborate with others on projects within Genmo AI?",
      "answer": "Yes, Genmo AI offers collaboration features that allow you to work with others on projects. You can share data, models, and results, and collaborate in real-time to enhance productivity and teamwork."
    },
    {
      "question": "Does Genmo AI offer model interpretability features?",
      "answer": "Yes, Genmo AI recognizes the importance of model interpretability. It provides tools and techniques to help you understand and interpret the decisions made by machine learning models, allowing you to gain insights into the factors influencing the model's predictions."
    },
    {
      "question": "Can I deploy Genmo AI models on cloud platforms?",
      "answer": "Yes, Genmo AI supports deployment on various cloud platforms. You can deploy your models on platforms such as Amazon Web Services (AWS), Google Cloud Platform (GCP), or Microsoft Azure, among others."
    },
    {
      "question": "What is the average response time for Genmo AI API calls?",
      "answer": "The average response time for Genmo AI API calls may vary depending on factors such as the complexity of the task, the size of the data, and the current system load. However, Genmo AI aims to provide fast and efficient responses to API requests."
    },
    {
      "question": "Can Genmo AI handle multi-label classification tasks?",
      "answer": "Yes, Genmo AI supports multi-label classification tasks. Multi-label classification involves assigning multiple labels to each instance, and Genmo AI provides algorithms and techniques to tackle such tasks."
    },
    {
      "question": "Does Genmo AI offer data visualization capabilities?",
      "answer": "Yes, Genmo AI provides data visualization capabilities to help users explore and understand their data. You can generate various types of visualizations, such as charts, plots, and graphs, to gain insights and communicate findings effectively."
    },
    {
      "question": "Can I use Genmo AI for anomaly detection?",
      "answer": "Yes, Genmo AI offers anomaly detection capabilities. By analyzing patterns and detecting deviations from normal behavior, Genmo AI can help identify anomalies in data, whether it's for fraud detection, system monitoring, or other applications."
    },
    {
      "question": "Does Genmo AI offer natural language generation (NLG) capabilities?",
      "answer": "Yes, Genmo AI provides natural language generation (NLG) capabilities. NLG involves generating human-like text based on input data, and Genmo AI offers techniques to automate the generation of narratives, reports, or other written content."
    },
    {
      "question": "Can Genmo AI assist with data clustering tasks?",
      "answer": "Yes, Genmo AI supports data clustering tasks. Clustering algorithms can group similar data points together, and Genmo AI provides algorithms and tools to perform clustering analysis on your datasets."
    },
    {
      "question": "Does Genmo AI provide tools for feature selection and dimensionality reduction?",
      "answer": "Yes, Genmo AI offers feature selection and dimensionality reduction techniques. These techniques help identify the most relevant features in your data and reduce the dimensionality, leading to more efficient and accurate analysis."
    },
    {
      "question": "Can I use Genmo AI for time series forecasting?",
      "answer": "Yes, Genmo AI provides time series forecasting capabilities. You can leverage advanced algorithms to make predictions about future values based on historical time-stamped data."
    },
    {
      "question": "Does Genmo AI offer automated data labeling or annotation features?",
      "answer": "Yes, Genmo AI includes automated data labeling or annotation features. These features can assist in labeling or annotating large datasets, saving time and effort in data preparation for machine learning tasks."
    },
    {
      "question": "Can Genmo AI perform transfer learning?",
      "answer": "Yes, Genmo AI supports transfer learning. Transfer learning allows you to leverage knowledge gained from training models on one task or dataset to improve performance on a different but related task or dataset."
    },
    {
      "question": "Does Genmo AI provide text summarization capabilities?",
      "answer": "Yes, Genmo AI offers text summarization capabilities. Text summarization involves condensing longer texts into shorter summaries while preserving the key information, and Genmo AI provides algorithms to automate this process."
    },
    {
      "question": "Can Genmo AI handle imbalanced datasets in classification tasks?",
      "answer": "Yes, Genmo AI provides techniques to handle imbalanced datasets in classification tasks. These techniques aim to address the challenges posed by datasets where the distribution of classes is uneven, improving the model's ability to handle minority classes."
    },
    {
      "question": "Does Genmo AI offer hyperparameter optimization capabilities?",
      "answer": "Yes, Genmo AI includes hyperparameter optimization capabilities. Hyperparameters are configuration settings that affect the performance of machine learning models, and Genmo AI provides methods to automatically search for optimal hyperparameter values."
    },
    {
      "question": "Can I export the results of my analysis from Genmo AI?",
      "answer": "Yes, Genmo AI allows you to export the results of your analysis. You can save the outputs, such as generated models, visualizations, or data summaries, in various formats for further analysis or sharing with others."
    },
    {
      "question": "Can Genmo AI perform object detection in images?",
      "answer": "Yes, Genmo AI supports object detection in images. It can identify and localize multiple objects within an image, providing bounding boxes and labels for each detected object."
    },
    {
      "question": "Does Genmo AI offer text classification capabilities?",
      "answer": "Yes, Genmo AI provides text classification capabilities. It can classify text documents into predefined categories or labels based on their content or context."
    },
    {
      "question": "Can Genmo AI handle multi-modal data analysis?",
      "answer": "Yes, Genmo AI supports multi-modal data analysis. It can process and analyze data that involves multiple modalities, such as combining textual and visual information for more comprehensive insights."
    },
    {
      "question": "Does Genmo AI offer time series analysis and forecasting?",
      "answer": "Yes, Genmo AI includes time series analysis and forecasting capabilities. It can analyze sequential data over time, identify patterns, and make predictions about future values."
    },
    {
      "question": "Can Genmo AI assist with natural language understanding tasks?",
      "answer": "Yes, Genmo AI provides natural language understanding capabilities. It can comprehend and interpret the meaning of text, enabling tasks such as question-answering, information retrieval, and chatbot interactions."
    },
    {
      "question": "Does Genmo AI support unsupervised learning algorithms?",
      "answer": "Yes, Genmo AI supports unsupervised learning algorithms. Unsupervised learning techniques, such as clustering and dimensionality reduction, can be applied to discover patterns and structure in unlabeled data."
    },
    {
      "question": "Can Genmo AI generate synthetic data for training purposes?",
      "answer": "Yes, Genmo AI offers the generation of synthetic data. It can create artificial data that resembles real-world examples, which can be used for training and testing machine learning models."
    },
    {
      "question": "Does Genmo AI provide data preprocessing capabilities?",
      "answer": "Yes, Genmo AI includes data preprocessing capabilities. It offers functions and tools to clean, transform, and preprocess raw data before performing analysis or training machine learning models."
    },
    {
      "question": "Can Genmo AI assist with recommender systems?",
      "answer": "Yes, Genmo AI supports recommender systems. It can analyze user preferences and behavior to provide personalized recommendations for products, content, or services."
    },
    {
      "question": "Does Genmo AI offer support for deep learning architectures?",
      "answer": "Yes, Genmo AI provides support for deep learning architectures. It includes pre-trained models and frameworks for tasks such as image recognition, natural language processing, and sequence modeling."
    }
  ]
}